This is BibTeX, Version 0.99d
Capacity: max_strings=200000, hash_size=200000, hash_prime=170003
The top-level auxiliary file: Studienprojekt_SCHULZ.aux
Reallocating 'name_of_file' (item size: 1) to 13 items.
The style file: Prod_Seminar.bst
Reallocating 'name_of_file' (item size: 1) to 10 items.
Database file #1: Literatur.bib
You've used 37 entries,
            2826 wiz_defined-function locations,
            823 strings with 11430 characters,
and the built_in function-call counts, 22460 in all, are:
= -- 1781
> -- 879
< -- 84
+ -- 335
- -- 288
* -- 1879
:= -- 3406
add.period$ -- 37
call.type$ -- 37
change.case$ -- 250
chr.to.int$ -- 37
cite$ -- 37
duplicate$ -- 1610
empty$ -- 1543
format.name$ -- 456
if$ -- 4476
int.to.chr$ -- 1
int.to.str$ -- 1
missing$ -- 336
newline$ -- 115
num.names$ -- 185
pop$ -- 600
preamble$ -- 1
purify$ -- 244
quote$ -- 0
skip$ -- 795
stack$ -- 0
substring$ -- 991
swap$ -- 995
text.length$ -- 44
text.prefix$ -- 0
top$ -- 0
type$ -- 424
warning$ -- 0
while$ -- 155
width$ -- 0
write$ -- 438
