\relax 
\providecommand\hyper@newdestlabel[2]{}
\providecommand\babel@aux[2]{}
\@nameuse{bbl@beforestart}
\catcode `"\active 
\providecommand\HyperFirstAtBeginDocument{\AtBeginDocument}
\HyperFirstAtBeginDocument{\ifx\hyper@anchor\@undefined
\global\let\oldcontentsline\contentsline
\gdef\contentsline#1#2#3#4{\oldcontentsline{#1}{#2}{#3}}
\global\let\oldnewlabel\newlabel
\gdef\newlabel#1#2{\newlabelxx{#1}#2}
\gdef\newlabelxx#1#2#3#4#5#6{\oldnewlabel{#1}{{#2}{#3}}}
\AtEndDocument{\ifx\hyper@anchor\@undefined
\let\contentsline\oldcontentsline
\let\newlabel\oldnewlabel
\fi}
\fi}
\global\let\hyper@last\relax 
\gdef\HyperFirstAtBeginDocument#1{#1}
\providecommand\HyField@AuxAddToFields[1]{}
\providecommand\HyField@AuxAddToCoFields[2]{}
\babel@aux{ngerman}{}
\@writefile{toc}{\contentsline {section}{Abbildungsverzeichnis}{iv}{section*.2}\protected@file@percent }
\@writefile{toc}{\contentsline {section}{Tabellenverzeichnis}{iv}{section*.3}\protected@file@percent }
\@writefile{toc}{\contentsline {section}{Abkürzungsverzeichnis}{iv}{section*.4}\protected@file@percent }
\@writefile{toc}{\contentsline {section}{Symbolverzeichnis}{v}{section*.6}\protected@file@percent }
\citation{kyoto99}
\citation{statista20}
\@writefile{toc}{\contentsline {section}{\numberline {1}Einleitung}{1}{section.1}\protected@file@percent }
\citation{Domschke93}
\citation{Domschke93}
\citation{drexl1993}
\citation{Domschke93}
\citation{drexl1993}
\citation{Günther11}
\citation{drexl1993}
\citation{Günther11}
\citation{Günther11}
\citation{drexl1993}
\citation{Haase94}
\citation{Haase94}
\@writefile{toc}{\contentsline {section}{\numberline {2}Grundlegende Aspekte von energieorientierter Losgrößen- und Reihenfolgeplanung unter Berücksichtigung von Emissionen}{3}{section.2}\protected@file@percent }
\@writefile{toc}{\contentsline {subsection}{\numberline {2.1}Einordnung der Losgrößen- und Reihenfolgeplanung in die Produktionsplanung}{3}{subsection.2.1}\protected@file@percent }
\newlabel{sec:Einordnung}{{2.1}{3}{Einordnung der Losgrößen- und Reihenfolgeplanung in die Produktionsplanung}{subsection.2.1}{}}
\citation{Weinert11}
\citation{Li14}
\citation{Wichmann19}
\citation{Johannes20}
\citation{Moon13}
\citation{Moon13}
\citation{Sanseverino11}
\citation{Zucker14}
\citation{Song17}
\citation{He15}
\@writefile{toc}{\contentsline {subsection}{\numberline {2.2}Rolle von Energie und Emissionen}{5}{subsection.2.2}\protected@file@percent }
\newlabel{Energie}{{2.2}{5}{Rolle von Energie und Emissionen}{subsection.2.2}{}}
\citation{Haase94}
\citation{Domschke93}
\citation{Meyr99}
\citation{Haase94}
\citation{Domschke93}
\citation{Domschke93}
\citation{Sahling10}
\citation{Domschke93}
\citation{Sahling10}
\citation{Ostmeyer19}
\citation{Meyr99}
\citation{KuSavan94}
\citation{Johannes20}
\citation{Meyr99}
\citation{Copil16}
\citation{Johannes20}
\citation{Ostmeyer19}
\citation{Fleischmann90}
\citation{DreKi97}
\citation{Haase94}
\citation{FleischMeyr96}
\citation{Biel2016}
\citation{Gahm16}
\citation{Zanoni14}
\@writefile{toc}{\contentsline {subsection}{\numberline {2.3}Literatur und Klassifizierung relevanter mathematischer Modelle}{6}{subsection.2.3}\protected@file@percent }
\@writefile{lof}{\contentsline {figure}{\numberline {1}{\ignorespaces Klassifizierung von mathematischen Modellen}}{7}{figure.caption.9}\protected@file@percent }
\providecommand*\caption@xref[2]{\@setref\relax\@undefined{#1}}
\newlabel{Abb:Einordnung}{{1}{7}{Klassifizierung von mathematischen Modellen}{figure.caption.9}{}}
\citation{Masmoudi16}
\citation{Moon13}
\citation{Liu15}
\citation{Absi13}
\citation{Chen13}
\citation{He15}
\citation{Song17}
\citation{Wichmann19}
\citation{Wichmann19b}
\@writefile{toc}{\contentsline {section}{\numberline {3}Proportional Lotsizing Scheduling Problem (PLSP) mit Energiespeicher unter Emissionsrestriktionen (PLSP-ESE)}{10}{section.3}\protected@file@percent }
\newlabel{Sec:BestPract}{{3}{10}{Proportional Lotsizing Scheduling Problem (PLSP) mit Energiespeicher unter Emissionsrestriktionen (PLSP-ESE)}{section.3}{}}
\@writefile{toc}{\contentsline {subsection}{\numberline {3.1}Formulierung des Grundmodells PLSP}{10}{subsection.3.1}\protected@file@percent }
\newlabel{PLSPannahmen}{{3.1}{10}{Formulierung des Grundmodells PLSP}{subsection.3.1}{}}
\@writefile{toc}{\contentsline {subsubsection}{\numberline {3.1.1}Modellannahmen}{10}{subsubsection.3.1.1}\protected@file@percent }
\citation{Haase94}
\citation{Drexl95}
\@writefile{lof}{\contentsline {figure}{\numberline {2}{\ignorespaces Gegenüberstellung relevanter aktueller Literatur}}{11}{figure.caption.10}\protected@file@percent }
\newlabel{Abb:Literaturvergleich}{{2}{11}{Gegenüberstellung relevanter aktueller Literatur}{figure.caption.10}{}}
\@writefile{lot}{\contentsline {table}{\numberline {1}{\ignorespaces \rmfamily  Verwendete Notation für das PLSP\relax }}{12}{table.caption.11}\protected@file@percent }
\newlabel{Tab:NotationPLSP}{{1}{12}{\rmfamily Verwendete Notation für das PLSP\relax }{table.caption.11}{}}
\@writefile{toc}{\contentsline {subsubsection}{\numberline {3.1.2}Mathematische Modellformulierung}{12}{subsubsection.3.1.2}\protected@file@percent }
\newlabel{Eq:ZFkt1}{{1}{12}{Mathematische Modellformulierung}{equation.3.1}{}}
\newlabel{Eq:lbilanz1}{{2}{12}{Mathematische Modellformulierung}{equation.3.2}{}}
\newlabel{Eq:stcheck1}{{3}{12}{Mathematische Modellformulierung}{equation.3.3}{}}
\newlabel{Eq:stcon1}{{4}{12}{Mathematische Modellformulierung}{equation.3.4}{}}
\newlabel{Eq:prodcheck1}{{5}{12}{Mathematische Modellformulierung}{equation.3.5}{}}
\citation{Haase94}
\citation{Drexl95}
\citation{Moon13}
\citation{Sanseverino11}
\citation{Moon13}
\citation{Moon13}
\newlabel{Eq:kapres1}{{6}{13}{Mathematische Modellformulierung}{equation.3.6}{}}
\newlabel{Eq:nichtnegativitaetsbedingung}{{7}{13}{Mathematische Modellformulierung}{equation.3.7}{}}
\newlabel{Eq:Binaervariable}{{8}{13}{Mathematische Modellformulierung}{equation.3.8}{}}
\@writefile{toc}{\contentsline {subsection}{\numberline {3.2}Modellerweiterung zum PLSP-ESE}{13}{subsection.3.2}\protected@file@percent }
\@writefile{toc}{\contentsline {subsubsection}{\numberline {3.2.1}Modellannahmen der Erweiterung}{13}{subsubsection.3.2.1}\protected@file@percent }
\@writefile{lof}{\contentsline {figure}{\numberline {3}{\ignorespaces Übersicht des Energiemodells}}{14}{figure.caption.12}\protected@file@percent }
\newlabel{Abb:Energiemodell}{{3}{14}{Übersicht des Energiemodells}{figure.caption.12}{}}
\citation{Zanoni14}
\citation{MasihTehrani13}
\citation{Berrada16}
\@writefile{toc}{\contentsline {subsubsection}{\numberline {3.2.2}Maschinenzustand}{15}{subsubsection.3.2.2}\protected@file@percent }
\@writefile{toc}{\contentsline {subsubsection}{\numberline {3.2.3}Energienachfrage}{15}{subsubsection.3.2.3}\protected@file@percent }
\@writefile{toc}{\contentsline {subsubsection}{\numberline {3.2.4}Wetter- und Zeitabhängigkeit}{15}{subsubsection.3.2.4}\protected@file@percent }
\citation{Zucker14}
\@writefile{toc}{\contentsline {subsubsection}{\numberline {3.2.5}Technische Limitierung von Batterien}{16}{subsubsection.3.2.5}\protected@file@percent }
\@writefile{toc}{\contentsline {subsubsection}{\numberline {3.2.6}Auf- und Entladeprozess}{16}{subsubsection.3.2.6}\protected@file@percent }
\@writefile{toc}{\contentsline {subsubsection}{\numberline {3.2.7}Verbindung zum öffentlichen Stromnetz}{16}{subsubsection.3.2.7}\protected@file@percent }
\newlabel{Anbieter}{{3.2.7}{16}{Verbindung zum öffentlichen Stromnetz}{subsubsection.3.2.7}{}}
\citation{Chandra20}
\citation{eu10}
\citation{Absi13}
\@writefile{toc}{\contentsline {subsubsection}{\numberline {3.2.8}Emissionsbeschränkungen}{17}{subsubsection.3.2.8}\protected@file@percent }
\@writefile{toc}{\contentsline {subsection}{\numberline {3.3}Mathematische Modellformulierung PLSP-ESE}{18}{subsection.3.3}\protected@file@percent }
\@writefile{lot}{\contentsline {table}{\numberline {2}{\ignorespaces \rmfamily  Verwendete Notation für das PLSP-ESE\relax }}{18}{table.caption.13}\protected@file@percent }
\newlabel{Tab:NotationPLSPESE}{{2}{18}{\rmfamily Verwendete Notation für das PLSP-ESE\relax }{table.caption.13}{}}
\@writefile{lot}{\contentsline {table}{\numberline {3}{\ignorespaces \rmfamily  Fortführung der Notation \relax }}{19}{table.caption.14}\protected@file@percent }
\newlabel{Tab:PLSPESEcon}{{3}{19}{\rmfamily Fortführung der Notation \relax }{table.caption.14}{}}
\newlabel{Eq:ZFkt}{{9}{19}{Mathematische Modellformulierung PLSP-ESE}{equation.3.9}{}}
\newlabel{Eq:kapnew}{{10}{19}{Mathematische Modellformulierung PLSP-ESE}{equation.3.10}{}}
\newlabel{Eq:idleTime}{{11}{19}{Mathematische Modellformulierung PLSP-ESE}{equation.3.11}{}}
\newlabel{Eq:strommenge}{{12}{20}{Mathematische Modellformulierung PLSP-ESE}{equation.3.12}{}}
\newlabel{Eq:stromdemand}{{13}{20}{Mathematische Modellformulierung PLSP-ESE}{equation.3.13}{}}
\newlabel{Eq:speicherkap}{{14}{20}{Mathematische Modellformulierung PLSP-ESE}{equation.3.14}{}}
\newlabel{Eq:strombilanz2}{{15}{20}{Mathematische Modellformulierung PLSP-ESE}{equation.3.15}{}}
\newlabel{Eq:stromverteilung}{{16}{20}{Mathematische Modellformulierung PLSP-ESE}{equation.3.16}{}}
\newlabel{Eq:chargeges}{{17}{20}{Mathematische Modellformulierung PLSP-ESE}{equation.3.17}{}}
\newlabel{Eq:dischargeges}{{18}{20}{Mathematische Modellformulierung PLSP-ESE}{equation.3.18}{}}
\newlabel{Eq:chargeKap}{{19}{20}{Mathematische Modellformulierung PLSP-ESE}{equation.3.19}{}}
\newlabel{Eq:dischargeKap}{{20}{20}{Mathematische Modellformulierung PLSP-ESE}{equation.3.20}{}}
\newlabel{Eq:buyKap}{{21}{21}{Mathematische Modellformulierung PLSP-ESE}{equation.3.21}{}}
\newlabel{Eq:buyges}{{22}{21}{Mathematische Modellformulierung PLSP-ESE}{equation.3.22}{}}
\newlabel{Eq:sellKap}{{23}{21}{Mathematische Modellformulierung PLSP-ESE}{equation.3.23}{}}
\newlabel{Eq:sellges}{{24}{21}{Mathematische Modellformulierung PLSP-ESE}{equation.3.24}{}}
\newlabel{Eq:co2menge}{{25}{21}{Mathematische Modellformulierung PLSP-ESE}{equation.3.25}{}}
\newlabel{Eq:co2Inventory}{{26}{21}{Mathematische Modellformulierung PLSP-ESE}{equation.3.26}{}}
\newlabel{Eq:co2Inventorylast}{{27}{21}{Mathematische Modellformulierung PLSP-ESE}{equation.3.27}{}}
\newlabel{Eq:BinaervariablePLSPESE}{{28}{21}{Mathematische Modellformulierung PLSP-ESE}{equation.3.28}{}}
\newlabel{Eq:nichtnegativitätsbedingungPLSPESE}{{29}{21}{Mathematische Modellformulierung PLSP-ESE}{equation.3.29}{}}
\citation{smard21}
\@writefile{toc}{\contentsline {section}{\numberline {4}Numerischer Studie zum Vergleich der Modelle PLSP, PLSP-ESE und dem energieorientierten PLSP (PLSP-EC)}{22}{section.4}\protected@file@percent }
\@writefile{toc}{\contentsline {subsection}{\numberline {4.1}Generierung der Testinstanzen}{22}{subsection.4.1}\protected@file@percent }
\@writefile{lot}{\contentsline {table}{\numberline {4}{\ignorespaces \rmfamily  Testinstanzen \relax }}{23}{table.caption.15}\protected@file@percent }
\newlabel{Tab:Instanzen}{{4}{23}{\rmfamily Testinstanzen \relax }{table.caption.15}{}}
\@writefile{toc}{\contentsline {subsection}{\numberline {4.2}Ergebnisse und Analyse der numerischen Studie}{24}{subsection.4.2}\protected@file@percent }
\newlabel{ergebnisse}{{4.2}{24}{Ergebnisse und Analyse der numerischen Studie}{subsection.4.2}{}}
\@writefile{lot}{\contentsline {table}{\numberline {5}{\ignorespaces Gesamtkosten der Modelle abhängig von Parametervariation\relax }}{25}{table.caption.16}\protected@file@percent }
\newlabel{tab:result}{{5}{25}{Gesamtkosten der Modelle abhängig von Parametervariation\relax }{table.caption.16}{}}
\@writefile{lof}{\contentsline {figure}{\numberline {4}{\ignorespaces Gantt-Diagramm PLSP-ESE Fall 2121}}{26}{figure.caption.17}\protected@file@percent }
\newlabel{Abb:GanttPLSPESE2121}{{4}{26}{Gantt-Diagramm PLSP-ESE Fall 2121}{figure.caption.17}{}}
\@writefile{lof}{\contentsline {figure}{\numberline {5}{\ignorespaces Gantt-Diagramm PLSP-EC Fall **21}}{27}{figure.caption.18}\protected@file@percent }
\newlabel{Abb:GanttPLSPEC21}{{5}{27}{Gantt-Diagramm PLSP-EC Fall **21}{figure.caption.18}{}}
\@writefile{lof}{\contentsline {figure}{\numberline {6}{\ignorespaces Gantt-Diagramm PLSP}}{28}{figure.caption.19}\protected@file@percent }
\newlabel{Abb:GanttPLSP}{{6}{28}{Gantt-Diagramm PLSP}{figure.caption.19}{}}
\@writefile{lof}{\contentsline {figure}{\numberline {7}{\ignorespaces Gantt-Diagramm PLSP-ESE 1223}}{29}{figure.caption.20}\protected@file@percent }
\newlabel{Abb:GanttPLSPESE1223}{{7}{29}{Gantt-Diagramm PLSP-ESE 1223}{figure.caption.20}{}}
\@writefile{lof}{\contentsline {figure}{\numberline {8}{\ignorespaces Gantt-Diagramm PLSP-EC **23}}{30}{figure.caption.21}\protected@file@percent }
\newlabel{Abb:GanttPLSPEC23}{{8}{30}{Gantt-Diagramm PLSP-EC **23}{figure.caption.21}{}}
\@writefile{lof}{\contentsline {figure}{\numberline {9}{\ignorespaces Gantt-Diagramm PLSP-ESE 3323}}{31}{figure.caption.22}\protected@file@percent }
\newlabel{Abb:GanttPLSPESE3323}{{9}{31}{Gantt-Diagramm PLSP-ESE 3323}{figure.caption.22}{}}
\@writefile{toc}{\contentsline {section}{\numberline {5}Betriebswirtschaftliche Bewertung und Ausblick}{31}{section.5}\protected@file@percent }
\bibstyle{Prod_Seminar}
\bibdata{Literatur}
\bibcite{Absi13}{{1}{2013}{{Absi et~al.}}{{Absi, Dauzère-Pérès, Kedad-Sidhoum, Penz und Rapine}}}
\bibcite{Berrada16}{{2}{2016}{{Berrada und Loudiyi}}{{Berrada und Loudiyi}}}
\bibcite{Biel2016}{{3}{2016}{{Biel und Glock}}{{Biel und Glock}}}
\bibcite{statista20}{{4}{2020}{{Breitkopf}}{{Breitkopf}}}
\bibcite{smard21}{{5}{2021}{{Bundesnetzagentur und Stromdaten}}{{Bundesnetzagentur und Stromdaten}}}
\bibcite{Chandra20}{{6}{2020}{{Chandrasekharam und Ranjith~Pathegama}}{{Chandrasekharam und Ranjith~Pathegama}}}
\bibcite{Chen13}{{7}{2013}{{Chen et~al.}}{{Chen, Benjaafar und Elomri}}}
\bibcite{Copil16}{{8}{2016}{{Copil et~al.}}{{Copil, Wörbelauer, Meyr und Tempelmeier}}}
\bibcite{Domschke93}{{9}{1993}{{Domschke et~al.}}{{Domschke, Scholl und Voß}}}
\bibcite{DreKi97}{{10}{1997}{{Drexl und Kimms}}{{Drexl und Kimms}}}
\bibcite{drexl1993}{{11}{1993}{{Drexl et~al.}}{{Drexl, Fleischmann, G{\"u}nther, Stadtler und Tempelmeier}}}
\bibcite{Drexl95}{{12}{1995}{{Drexl und Haase}}{{Drexl und Haase}}}
\bibcite{Fleischmann90}{{13}{1990}{{Fleischmann}}{{Fleischmann}}}
\@writefile{toc}{\contentsline {section}{Literatur}{33}{section*.23}\protected@file@percent }
\bibcite{FleischMeyr96}{{14}{1996}{{Fleischmann und Meyr}}{{Fleischmann und Meyr}}}
\bibcite{Gahm16}{{15}{2016}{{Gahm et~al.}}{{Gahm, Denz, Dirr und Tuma}}}
\bibcite{Günther11}{{16}{2011}{{Günther und Tempelmeier}}{{Günther und Tempelmeier}}}
\bibcite{Haase94}{{17}{1994}{{Haase}}{{Haase}}}
\bibcite{He15}{{18}{2015}{{He et~al.}}{{He, Zhang, Xu und Bian}}}
\bibcite{Johannes20}{{19}{2020}{{Johannes}}{{Johannes}}}
\bibcite{KuSavan94}{{20}{1994}{{Kuik et~al.}}{{Kuik, Salomon und van Wassenhove}}}
\bibcite{Liu15}{{21}{2015}{{Liu}}{{Liu}}}
\bibcite{Li14}{{22}{2014}{{Liu et~al.}}{{Liu, Dong, Lohse, Petrovic und Gindy}}}
\bibcite{MasihTehrani13}{{23}{2013}{{Masih-Tehrani et~al.}}{{Masih-Tehrani, Ha’iri-Yazdi, Esfahanian und Safaei}}}
\bibcite{Masmoudi16}{{24}{2016}{{Masmoudi et~al.}}{{Masmoudi, Yalaoui, Ouazene und Chehade}}}
\bibcite{Meyr99}{{25}{1999}{{Meyr}}{{Meyr}}}
\bibcite{Moon13}{{26}{2013}{{Moon und Park}}{{Moon und Park}}}
\bibcite{kyoto99}{{27}{1999}{{Nations}}{{Nations}}}
\bibcite{Ostmeyer19}{{28}{2019}{{Ostmeyer}}{{Ostmeyer}}}
\bibcite{Sahling10}{{29}{2010}{{Sahling}}{{Sahling}}}
\bibcite{Sanseverino11}{{30}{2011}{{Sanseverino et~al.}}{{Sanseverino, Di~Silvestre, Ippolito, De~Paola und Lo~Re}}}
\bibcite{Song17}{{31}{2017}{{Song et~al.}}{{Song, Govindan, Xu, Du und Qiao}}}
\bibcite{eu10}{{32}{2010}{{Union}}{{Union}}}
\bibcite{Weinert11}{{33}{2011}{{Weinert et~al.}}{{Weinert, Chiotellis und Seliger}}}
\bibcite{Wichmann19}{{34}{2019}{{Wichmann et~al.}}{{Wichmann, Johannes und Spengler}}}
\bibcite{Wichmann19b}{{35}{2019b}{{Wichmann et~al.}}{{Wichmann, Johannes und Spengler}}}
\bibcite{Zanoni14}{{36}{2014}{{Zanoni et~al.}}{{Zanoni, Bettoni und Glock}}}
\bibcite{Zucker14}{{37}{2014}{{Zucker und Hinchliffe}}{{Zucker und Hinchliffe}}}
\@writefile{toc}{\contentsline {section}{\numberline {A}Modellierungen und Implementierungen der Modelle}{37}{appendix.A}\protected@file@percent }
\@writefile{toc}{\contentsline {subsection}{\numberline {A.1}Ergänzungen zur numerischen Studie}{37}{subsection.A.1}\protected@file@percent }
\@writefile{toc}{\contentsline {subsubsection}{\numberline {A.1.1}Mathematische Modellformulierung des PLSP mit Energy Consideration (PLSPEC)}{37}{subsubsection.A.1.1}\protected@file@percent }
\@writefile{lot}{\contentsline {table}{\numberline {6}{\ignorespaces \rmfamily  Verwendete Notation für das PLSP-EC\relax }}{37}{table.caption.24}\protected@file@percent }
\newlabel{Tab:NotationPLSPEC}{{6}{37}{\rmfamily Verwendete Notation für das PLSP-EC\relax }{table.caption.24}{}}
\@writefile{lot}{\contentsline {table}{\numberline {7}{\ignorespaces \rmfamily  Fortführung der Notation des PLSP-EC \relax }}{38}{table.caption.25}\protected@file@percent }
\newlabel{Tab:EVNotation}{{7}{38}{\rmfamily Fortführung der Notation des PLSP-EC \relax }{table.caption.25}{}}
\newlabel{Eq:ZFktPLSPEC}{{30}{38}{Mathematische Modellformulierung des PLSP mit Energy Consideration (PLSPEC)}{equation.A.30}{}}
\newlabel{Eq:lbilanz1PLSPEC}{{31}{38}{Mathematische Modellformulierung des PLSP mit Energy Consideration (PLSPEC)}{equation.A.31}{}}
\newlabel{Eq:stcheck1PLSPEC}{{32}{38}{Mathematische Modellformulierung des PLSP mit Energy Consideration (PLSPEC)}{equation.A.32}{}}
\newlabel{Eq:stcon1PLSPEC}{{33}{38}{Mathematische Modellformulierung des PLSP mit Energy Consideration (PLSPEC)}{equation.A.33}{}}
\newlabel{Eq:prodcheck1PLSPEC}{{34}{38}{Mathematische Modellformulierung des PLSP mit Energy Consideration (PLSPEC)}{equation.A.34}{}}
\newlabel{Eq:kapres1PLSPEC}{{35}{38}{Mathematische Modellformulierung des PLSP mit Energy Consideration (PLSPEC)}{equation.A.35}{}}
\newlabel{Eq:kapnewPLSPEC}{{36}{38}{Mathematische Modellformulierung des PLSP mit Energy Consideration (PLSPEC)}{equation.A.36}{}}
\newlabel{Eq:idleTimePLSPEC}{{37}{39}{Mathematische Modellformulierung des PLSP mit Energy Consideration (PLSPEC)}{equation.A.37}{}}
\newlabel{Eq:strommengePLSPEC}{{38}{39}{Mathematische Modellformulierung des PLSP mit Energy Consideration (PLSPEC)}{equation.A.38}{}}
\newlabel{Eq:stromdemandPLSPEC}{{39}{39}{Mathematische Modellformulierung des PLSP mit Energy Consideration (PLSPEC)}{equation.A.39}{}}
\newlabel{Eq:buyKapPLSPEC}{{40}{39}{Mathematische Modellformulierung des PLSP mit Energy Consideration (PLSPEC)}{equation.A.40}{}}
\newlabel{Eq:co2mengePLSPEC}{{41}{39}{Mathematische Modellformulierung des PLSP mit Energy Consideration (PLSPEC)}{equation.A.41}{}}
\newlabel{Eq:co2InventoryPLSPEC}{{42}{39}{Mathematische Modellformulierung des PLSP mit Energy Consideration (PLSPEC)}{equation.A.42}{}}
\newlabel{Eq:co2InventorylastPLSPEC}{{43}{39}{Mathematische Modellformulierung des PLSP mit Energy Consideration (PLSPEC)}{equation.A.43}{}}
\newlabel{Eq:Binaervariable3}{{44}{39}{Mathematische Modellformulierung des PLSP mit Energy Consideration (PLSPEC)}{equation.A.44}{}}
\newlabel{Eq:nichtnegativitätsbedingung}{{45}{39}{Mathematische Modellformulierung des PLSP mit Energy Consideration (PLSPEC)}{equation.A.45}{}}
\@writefile{toc}{\contentsline {subsubsection}{\numberline {A.1.2}Energiekostenrechnung PLSP}{40}{subsubsection.A.1.2}\protected@file@percent }
\newlabel{Eq:strommengePLSP}{{46}{40}{Energiekostenrechnung PLSP}{equation.A.46}{}}
\newlabel{Eq:kostenEmissionenPLSP}{{47}{40}{Energiekostenrechnung PLSP}{equation.A.47}{}}
\newlabel{Eq:MengeEmissionenPLSP}{{48}{40}{Energiekostenrechnung PLSP}{equation.A.48}{}}
\@writefile{toc}{\contentsline {subsubsection}{\numberline {A.1.3}Weitere Daten für die Testinstanzen}{40}{subsubsection.A.1.3}\protected@file@percent }
\@writefile{lot}{\contentsline {table}{\numberline {8}{\ignorespaces Verlauf des Wetterparameters $ w_t$\relax }}{40}{table.caption.26}\protected@file@percent }
\newlabel{tab:wetter}{{8}{40}{Verlauf des Wetterparameters $ w_t$\relax }{table.caption.26}{}}
\@writefile{lot}{\contentsline {table}{\numberline {9}{\ignorespaces Verlauf des Verkaufpreises von Energie $ec^{sell}_t$\relax }}{40}{table.caption.27}\protected@file@percent }
\newlabel{tab:verkaufspreis}{{9}{40}{Verlauf des Verkaufpreises von Energie $ec^{sell}_t$\relax }{table.caption.27}{}}
\@writefile{lot}{\contentsline {table}{\numberline {10}{\ignorespaces Abrufbare Energiemenge am Markt $eq_{ept}$\relax }}{41}{table.caption.28}\protected@file@percent }
\newlabel{tab:energiemenge}{{10}{41}{Abrufbare Energiemenge am Markt $eq_{ept}$\relax }{table.caption.28}{}}
\@writefile{lot}{\contentsline {table}{\numberline {11}{\ignorespaces Nachfrage $d(j,t)$ von Produkten $j$\relax }}{41}{table.caption.29}\protected@file@percent }
\newlabel{tab:demand}{{11}{41}{Nachfrage $d(j,t)$ von Produkten $j$\relax }{table.caption.29}{}}
\@writefile{lot}{\contentsline {table}{\numberline {12}{\ignorespaces Energiepreis $ec^{buy}_{ept}$ in ct/kWh\relax }}{41}{table.caption.30}\protected@file@percent }
\newlabel{tab:energiepreis}{{12}{41}{Energiepreis $ec^{buy}_{ept}$ in ct/kWh\relax }{table.caption.30}{}}
\@writefile{toc}{\contentsline {subsubsection}{\numberline {A.1.4}Vollständiger Überblick der Ergebnisse der numerischen Studie}{41}{subsubsection.A.1.4}\protected@file@percent }
\@writefile{lot}{\contentsline {table}{\numberline {13}{\ignorespaces Gesamtkosten der Modelle abhängig von Parametervariation\relax }}{42}{table.caption.31}\protected@file@percent }
\newlabel{tab:resultvoll}{{13}{42}{Gesamtkosten der Modelle abhängig von Parametervariation\relax }{table.caption.31}{}}
\@writefile{lot}{\contentsline {table}{\numberline {14}{\ignorespaces Fortsetzung der Tabelle \ref  {tab:resultvoll}\relax }}{43}{table.caption.32}\protected@file@percent }
\newlabel{tab:result2voll}{{14}{43}{Fortsetzung der Tabelle \ref {tab:resultvoll}\relax }{table.caption.32}{}}
\@writefile{toc}{\contentsline {subsection}{\numberline {A.2}Implementierungen in GAMS}{43}{subsection.A.2}\protected@file@percent }
\@writefile{toc}{\contentsline {subsubsection}{\numberline {A.2.1}PLSP-ESE}{43}{subsubsection.A.2.1}\protected@file@percent }
\@writefile{toc}{\contentsline {subsubsection}{\numberline {A.2.2}PLSP-EC}{55}{subsubsection.A.2.2}\protected@file@percent }
\@writefile{toc}{\contentsline {subsubsection}{\numberline {A.2.3}PLSP}{63}{subsubsection.A.2.3}\protected@file@percent }
\gdef \@abspage@last{73}
